…
## What is the average daily activity pattern?
**Step1**: On a time series plot of the 5-minute interval, show the average number of steps taken, averaged across all days  
Note: the histogram is stored in the *plot2.png* file in the subdirectory *figure*. 


```r
MeanPerInterval <- Activity %>% 
        group_by(interval) %>% 
        summarise(MeanSteps = mean(steps,na.rm=TRUE)) 
MeanPerInterval
```

```
## # A tibble: 288 x 2
##    interval MeanSteps
##       <int>     <dbl>
##  1        0    1.72  
##  2        5    0.340 
##  3       10    0.132 
##  4       15    0.151 
##  5       20    0.0755
##  6       25    2.09  
##  7       30    0.528 
##  8       35    0.868 
##  9       40    0     
## 10       45    1.47  
## # ... with 278 more rows
```
…
```r
MeanPerIntervalDaytype <- ActivityNew %>% 
        group_by(daytype,interval) %>% 
        summarise(MeanSteps = mean(steps)) 
MeanPerIntervalDaytype
```

```
## # A tibble: 576 x 3
## # Groups:   daytype [2]
##    daytype interval MeanSteps
##    <fct>      <int>     <dbl>
##  1 Weekday        0    2.25  
##  2 Weekday        5    0.445 
##  3 Weekday       10    0.173 
##  4 Weekday       15    0.198 
##  5 Weekday       20    0.0996
##  6 Weekday       25    1.59  
##  7 Weekday       30    0.693 
##  8 Weekday       35    1.14  
##  9 Weekday       40    0     
## 10 Weekday       45    1.80  
## # ... with 566 more rows
```
…
